[
    { "id": 1, "title": "Design & Graphics", "parent_id": null },
    { "id": 2, "title": "Websites & Developing", "parent_id": null },
    { "id": 3, "title": "Ecommerce & CMS", "parent_id": null },
    { "id": 4, "title": "Mobile & Apps", "parent_id": null },
    { "id": 5, "title": "Content & Copywriting", "parent_id": null },
    { "id": 6, "title": "Desktop & Apps", "parent_id": null },
    { "id": 7, "title": "Online Marketing", "parent_id": null },
    { "id": 8, "title": "Video & Animation", "parent_id": null },
    { "id": 9, "title": "Audio", "parent_id": null },

    { "id": 10, "title": "Logo Design", "parent_id": 1 },
    { "id": 11, "title": "Logo Customization", "parent_id": 1 },
    { "id": 12, "title": "3D Design", "parent_id": 1 },
    { "id": 13, "title": "Photo Editing", "parent_id": 1 },
    { "id": 14, "title": "Drawing & Sketching", "parent_id": 1 },
    { "id": 15, "title": "Vector Illustration", "parent_id": 1 },
    { "id": 16, "title": "Caricatures", "parent_id": 1 },
    { "id": 17, "title": "Cartoon Design", "parent_id": 1 },
    { "id": 18, "title": "eBook cover", "parent_id": 1 },
    { "id": 19, "title": "Digital Publishing", "parent_id": 1 },
    { "id": 20, "title": "Invitation Design", "parent_id": 1 },
    { "id": 21, "title": "T-Shirt Design", "parent_id": 1 },
    { "id": 22, "title": "Icon Set Design", "parent_id": 1 },
    { "id": 23, "title": "Customize Graphics", "parent_id": 1 },
    { "id": 24, "title": "Poster & Flyer Design", "parent_id": 1 },
    { "id": 25, "title": "Brochure Design", "parent_id": 1 },
    { "id": 26, "title": "Other", "parent_id": 1 },

    { "id": 27, "title": "New Website Development", "parent_id": 2 },
    { "id": 28, "title": "Landing Page", "parent_id": 2 },
    { "id": 29, "title": "Web Components", "parent_id": 2 },
    { "id": 30, "title": "PSD to HTML", "parent_id": 2 },
    { "id": 31, "title": "Email Design", "parent_id": 2 },
    { "id": 32, "title": "Bug Fixes", "parent_id": 2 },
    { "id": 33, "title": "Website Customization & Updates", "parent_id": 2 },
    { "id": 34, "title": "PHP & Python", "parent_id": 2 },
    { "id": 35, "title": "Server Admin", "parent_id": 2 },

    { "id": 36, "title": "Wordpress", "parent_id": 3 },
    { "id": 37, "title": "Drupal", "parent_id": 3 },
    { "id": 38, "title": "Joomla", "parent_id": 3 },
    { "id": 39, "title": "Online Shopping", "parent_id": 3 },
    { "id": 40, "title": "Shopify", "parent_id": 3 },
    { "id": 41, "title": "Magento", "parent_id": 3 },
    { "id": 42, "title": "OpenCart", "parent_id": 3 },
    { "id": 43, "title": "Prestashop", "parent_id": 3 },
    { "id": 44, "title": "WooCommerce", "parent_id": 3 },
    { "id": 45, "title": "CMS Other", "parent_id": 3 },

    { "id": 46, "title": "App Design", "parent_id": 4 },
    { "id": 47, "title": "Android", "parent_id": 4 },
    { "id": 48, "title": "Java Developing", "parent_id": 4 },
    { "id": 49, "title": "IOS & Shift", "parent_id": 4 },
    { "id": 50, "title": "Windows MObile", "parent_id": 4 },
    { "id": 51, "title": "Bug Fixes", "parent_id": 4 }
]